^C:\USERS\MATTHILDE\DOCUMENTS\PQAAS\PROGRESSQUESTSERVEREDITION\PROGRESSQUESTSERVEREDITION\RELEASE\LISTS.OBJ|C:\USERS\MATTHILDE\DOCUMENTS\PQAAS\PROGRESSQUESTSERVEREDITION\PROGRESSQUESTSERVEREDITION\RELEASE\PQLOGGING.OBJ|C:\USERS\MATTHILDE\DOCUMENTS\PQAAS\PROGRESSQUESTSERVEREDITION\PROGRESSQUESTSERVEREDITION\RELEASE\PQSLAVE.OBJ|C:\USERS\MATTHILDE\DOCUMENTS\PQAAS\PROGRESSQUESTSERVEREDITION\PROGRESSQUESTSERVEREDITION\RELEASE\PROGRESSQUESTSERVEREDITION.OBJ|C:\USERS\MATTHILDE\DOCUMENTS\PQAAS\PROGRESSQUESTSERVEREDITION\PROGRESSQUESTSERVEREDITION\RELEASE\STDAFX.OBJ|C:\USERS\MATTHILDE\DOCUMENTS\PQAAS\PROGRESSQUESTSERVEREDITION\PROGRESSQUESTSERVEREDITION\RELEASE\TITLEGEN.OBJ
/ERRORREPORT:PROMPT /OUT:"C:\Users\Matthilde\Documents\pqaas\ProgressQuestServerEdition\Release\ProgressQuestServerEdition.exe" /INCREMENTAL:NO /NOLOGO kernel32.lib user32.lib /MANIFEST /ManifestFile:"Release\ProgressQuestServerEdition.exe.intermediate.manifest" /MANIFESTUAC:"level='asInvoker' uiAccess='false'" /DEBUG /PDB:"C:\Users\Matthilde\Documents\pqaas\ProgressQuestServerEdition\Release\ProgressQuestServerEdition.pdb" /SUBSYSTEM:CONSOLE /OPT:REF /OPT:ICF /LTCG /TLBID:1 /DYNAMICBASE /NXCOMPAT /IMPLIB:"C:\Users\Matthilde\Documents\pqaas\ProgressQuestServerEdition\Release\ProgressQuestServerEdition.lib" /MACHINE:X86 Release\lists.obj
Release\pqlogging.obj
Release\pqslave.obj
Release\ProgressQuestServerEdition.obj
Release\stdafx.obj
Release\titlegen.obj
