^C:\USERS\MATTHILDE\DOCUMENTS\PQAAS\PROGRESSQUESTSERVEREDITION\PROGRESSQUESTSERVEREDITION\RELEASE\LISTS.OBJ|C:\USERS\MATTHILDE\DOCUMENTS\PQAAS\PROGRESSQUESTSERVEREDITION\PROGRESSQUESTSERVEREDITION\RELEASE\PQLOGGING.OBJ|C:\USERS\MATTHILDE\DOCUMENTS\PQAAS\PROGRESSQUESTSERVEREDITION\PROGRESSQUESTSERVEREDITION\RELEASE\PQSLAVE.OBJ|C:\USERS\MATTHILDE\DOCUMENTS\PQAAS\PROGRESSQUESTSERVEREDITION\PROGRESSQUESTSERVEREDITION\RELEASE\PROGRESSQUESTSERVEREDITION.OBJ|C:\USERS\MATTHILDE\DOCUMENTS\PQAAS\PROGRESSQUESTSERVEREDITION\PROGRESSQUESTSERVEREDITION\RELEASE\STDAFX.OBJ|C:\USERS\MATTHILDE\DOCUMENTS\PQAAS\PROGRESSQUESTSERVEREDITION\PROGRESSQUESTSERVEREDITION\RELEASE\TITLEGEN.OBJ
C:\PROGRAM FILES (X86)\MICROSOFT SDKS\WINDOWS\V7.0A\LIB\KERNEL32.LIB
C:\PROGRAM FILES (X86)\MICROSOFT SDKS\WINDOWS\V7.0A\LIB\USER32.LIB
C:\USERS\MATTHILDE\DOCUMENTS\PQAAS\PROGRESSQUESTSERVEREDITION\PROGRESSQUESTSERVEREDITION\RELEASE\LISTS.OBJ
C:\USERS\MATTHILDE\DOCUMENTS\PQAAS\PROGRESSQUESTSERVEREDITION\PROGRESSQUESTSERVEREDITION\RELEASE\PQLOGGING.OBJ
C:\USERS\MATTHILDE\DOCUMENTS\PQAAS\PROGRESSQUESTSERVEREDITION\PROGRESSQUESTSERVEREDITION\RELEASE\PQSLAVE.OBJ
C:\USERS\MATTHILDE\DOCUMENTS\PQAAS\PROGRESSQUESTSERVEREDITION\PROGRESSQUESTSERVEREDITION\RELEASE\PROGRESSQUESTSERVEREDITION.OBJ
C:\USERS\MATTHILDE\DOCUMENTS\PQAAS\PROGRESSQUESTSERVEREDITION\PROGRESSQUESTSERVEREDITION\RELEASE\STDAFX.OBJ
C:\USERS\MATTHILDE\DOCUMENTS\PQAAS\PROGRESSQUESTSERVEREDITION\PROGRESSQUESTSERVEREDITION\RELEASE\TITLEGEN.OBJ
C:\WINDOWS\GLOBALIZATION\SORTING\SORTDEFAULT.NLS
C:\PROGRAM FILES (X86)\MICROSOFT VISUAL STUDIO 10.0\VC\BIN\C2.DLL
C:\PROGRAM FILES (X86)\MICROSOFT VISUAL STUDIO 10.0\VC\LIB\MSVCRT.LIB
C:\PROGRAM FILES (X86)\MICROSOFT VISUAL STUDIO 10.0\VC\LIB\OLDNAMES.LIB
C:\PROGRAM FILES (X86)\MICROSOFT VISUAL STUDIO 10.0\VC\BIN\1033\LINKUI.DLL
C:\WINDOWS\SYSTEM32\TZRES.DLL
